{
  "status": 200,
  "message": "Lấy danh sách sản phẩm xu hướng theo ngày thành công",
  "data": {
    "content": [
      {
        "id": 1,
        "bookName": "Atomic Habits - Thay Đổi Tí Hon Hiệu Quả Bất Ngờ",
        "description": "Cuốn sách giúp bạn xây dựng thói quen tích cực và loại bỏ thói quen xấu một cách khoa học và hiệu quả.",
        "price": 180000,
        "originalPrice": 200000,
        "discountPercentage": 10,
        "stockQuantity": 85,
        "imageUrl": "https://example.com/images/atomic-habits.jpg",
        "bookCode": "BOOK1751357213276",
        "publicationDate": 1640995200000,
        "categoryId": 1,
        "categoryName": "Phát triển bản thân",
        "authors": [
          {
            "id": 1,
            "authorName": "James Clear",
            "biography": "Tác giả bestseller và chuyên gia về thói quen",
            "birthDate": 1985,
            "status": 1
          }
        ],
        "supplierId": 1,
        "supplierName": "Nhà sách Fahasa",
        "rating": 4.8,
        "reviewCount": 245,
        "soldCount": 180,
        "orderCount": 95,
        "trendingScore": 9.2,
        "trendingRank": 1,
        "isInFlashSale": true,
        "flashSalePrice": 160000,
        "flashSaleStockQuantity": 20,
        "createdAt": 1640995200000,
        "updatedAt": 1751357213276
      },
      {
        "id": 2,
        "bookName": "Doraemon Tập 45 - Nobita Và Vương Quốc Robot",
        "description": "Cuộc phiêu lưu mới của Nobita và những người bạn trong vương quốc robot kỳ diệu.",
        "price": 25000,
        "originalPrice": 25000,
        "discountPercentage": 0,
        "stockQuantity": 200,
        "imageUrl": "https://example.com/images/doraemon-45.jpg",
        "bookCode": "BOOK1751357356677",
        "publicationDate": 1751270400000,
        "categoryId": 3,
        "categoryName": "Truyện tranh",
        "authors": [
          {
            "id": 3,
            "authorName": "Fujiko F. Fujio",
            "biography": "Tác giả truyện tranh nổi tiếng Nhật Bản",
            "birthDate": 1933,
            "status": 1
          }
        ],
        "supplierId": 3,
        "supplierName": "Kim Đồng",
        "rating": 4.9,
        "reviewCount": 87,
        "soldCount": 320,
        "orderCount": 156,
        "trendingScore": 8.8,
        "trendingRank": 2,
        "isInFlashSale": false,
        "flashSalePrice": null,
        "flashSaleStockQuantity": null,
        "createdAt": 1751270400000,
        "updatedAt": 1751357356677
      }
    ],
    "totalElements": 15,
    "pageNumber": 0,
    "pageSize": 10,
    "totalPages": 2
  }
}
