{
  "status": 200,
  "message": "Lấy danh sách sản phẩm xu hướng thành công",
  "data": {
    "content": [
      {
        "id": 1,
        "bookName": "Atomic Habits - Thay Đổi Tí Hon Hiệu Quả Bất Ngờ",
        "description": "Cuốn sách giúp bạn xây dựng thói quen tích cực và loại bỏ thói quen xấu một cách khoa học và hiệu quả.",
        "price": 180000,
        "originalPrice": 200000,
        "discountPercentage": 10,
        "stockQuantity": 85,
        "imageUrl": "https://example.com/images/atomic-habits.jpg",
        "bookCode": "BOOK1751357213276",
        "publicationDate": 1640995200000,
        "categoryId": 1,
        "categoryName": "Phát triển bản thân",
        "authors": [
          {
            "id": 1,
            "authorName": "James Clear",
            "biography": "Tác giả bestseller và chuyên gia về thói quen",
            "birthDate": 1985,
            "status": 1
          }
        ],
        "supplierId": 1,
        "supplierName": "Nhà sách Fahasa",
        "rating": 4.8,
        "reviewCount": 245,
        "soldCount": 180,
        "orderCount": 95,
        "trendingScore": 9.2,
        "trendingRank": 1,
        "isInFlashSale": true,
        "flashSalePrice": 160000,
        "flashSaleStockQuantity": 20,
        "createdAt": 1640995200000,
        "updatedAt": 1751357213276
      },
      {
        "id": 2,
        "bookName": "Nghệ Thuật Tinh Tế Của Việc Đếch Quan Tâm",
        "description": "Cuốn sách gây sốt về cách sống tích cực bằng việc tập trung vào những gì thực sự quan trọng.",
        "price": 120000,
        "originalPrice": 120000,
        "discountPercentage": 0,
        "stockQuantity": 120,
        "imageUrl": "https://example.com/images/subtle-art.jpg",
        "bookCode": "BOOK1751357234919",
        "publicationDate": 1609459200000,
        "categoryId": 1,
        "categoryName": "Phát triển bản thân",
        "authors": [
          {
            "id": 2,
            "authorName": "Mark Manson",
            "biography": "Blogger nổi tiếng và tác giả sách phát triển bản thân",
            "birthDate": 1984,
            "status": 1
          }
        ],
        "supplierId": 2,
        "supplierName": "Nhà sách Trẻ",
        "rating": 4.6,
        "reviewCount": 189,
        "soldCount": 142,
        "orderCount": 78,
        "trendingScore": 8.7,
        "trendingRank": 2,
        "isInFlashSale": false,
        "flashSalePrice": null,
        "flashSaleStockQuantity": null,
        "createdAt": 1609459200000,
        "updatedAt": 1751357234919
      },
      {
        "id": 3,
        "bookName": "Doraemon Tập 45 - Nobita Và Vương Quốc Robot",
        "description": "Cuộc phiêu lưu mới của Nobita và những người bạn trong vương quốc robot kỳ diệu.",
        "price": 25000,
        "originalPrice": 25000,
        "discountPercentage": 0,
        "stockQuantity": 200,
        "imageUrl": "https://example.com/images/doraemon-45.jpg",
        "bookCode": "BOOK1751357356677",
        "publicationDate": 1751270400000,
        "categoryId": 3,
        "categoryName": "Truyện tranh",
        "authors": [
          {
            "id": 3,
            "authorName": "Fujiko F. Fujio",
            "biography": "Tác giả truyện tranh nổi tiếng Nhật Bản",
            "birthDate": 1933,
            "status": 1
          }
        ],
        "supplierId": 3,
        "supplierName": "Kim Đồng",
        "rating": 4.9,
        "reviewCount": 87,
        "soldCount": 320,
        "orderCount": 156,
        "trendingScore": 8.4,
        "trendingRank": 3,
        "isInFlashSale": false,
        "flashSalePrice": null,
        "flashSaleStockQuantity": null,
        "createdAt": 1751270400000,
        "updatedAt": 1751357356677
      },
      {
        "id": 4,
        "bookName": "Tôi Thấy Hoa Vàng Trên Cỏ Xanh",
        "description": "Tiểu thuyết kinh điển của văn học Việt Nam đương đại về tuổi thơ và tình cảm gia đình.",
        "price": 95000,
        "originalPrice": 95000,
        "discountPercentage": 0,
        "stockQuantity": 65,
        "imageUrl": "https://example.com/images/hoa-vang-co-xanh.jpg",
        "bookCode": "BOOK1751357697717",
        "publicationDate": 1262304000000,
        "categoryId": 2,
        "categoryName": "Văn học Việt Nam",
        "authors": [
          {
            "id": 4,
            "authorName": "Nguyễn Nhật Ánh",
            "biography": "Nhà văn nổi tiếng với nhiều tác phẩm dành cho thiếu nhi",
            "birthDate": 1955,
            "status": 1
          }
        ],
        "supplierId": 1,
        "supplierName": "Nhà sách Fahasa",
        "rating": 4.7,
        "reviewCount": 156,
        "soldCount": 98,
        "orderCount": 67,
        "trendingScore": 7.9,
        "trendingRank": 4,
        "isInFlashSale": false,
        "flashSalePrice": null,
        "flashSaleStockQuantity": null,
        "createdAt": 1262304000000,
        "updatedAt": 1751357697717
      },
      {
        "id": 5,
        "bookName": "Lập Trình Java Từ Cơ Bản Đến Nâng Cao",
        "description": "Sách học lập trình Java dành cho người mới bắt đầu với các ví dụ thực tế và dự án.",
        "price": 299000,
        "originalPrice": 299000,
        "discountPercentage": 0,
        "stockQuantity": 45,
        "imageUrl": "https://example.com/images/java-programming.jpg",
        "bookCode": "BOOK1751358228917",
        "publicationDate": 1735689600000,
        "categoryId": 4,
        "categoryName": "Công nghệ thông tin",
        "authors": [
          {
            "id": 5,
            "authorName": "Trần Văn A",
            "biography": "Kỹ sư phần mềm với 10 năm kinh nghiệm",
            "birthDate": 1985,
            "status": 1
          },
          {
            "id": 6,
            "authorName": "Nguyễn Thị B",
            "biography": "Giảng viên đại học chuyên ngành CNTT",
            "birthDate": 1980,
            "status": 1
          }
        ],
        "supplierId": 4,
        "supplierName": "Nhà xuất bản Đại học Quốc gia",
        "rating": 4.3,
        "reviewCount": 78,
        "soldCount": 56,
        "orderCount": 34,
        "trendingScore": 6.8,
        "trendingRank": 5,
        "isInFlashSale": false,
        "flashSalePrice": null,
        "flashSaleStockQuantity": null,
        "createdAt": 1735689600000,
        "updatedAt": 1751358228917
      },
      {
        "id": 6,
        "bookName": "Sapiens: Lược Sử Loài Người",
        "description": "Cuốn sách khám phá lịch sử tiến hóa của loài người từ thời tiền sử đến hiện đại.",
        "price": 250000,
        "originalPrice": 280000,
        "discountPercentage": 11,
        "stockQuantity": 30,
        "imageUrl": "https://example.com/images/sapiens.jpg",
        "bookCode": "BOOK1751387084686",
        "publicationDate": 1420070400000,
        "categoryId": 5,
        "categoryName": "Lịch sử",
        "authors": [
          {
            "id": 7,
            "authorName": "Yuval Noah Harari",
            "biography": "Nhà sử học và triết gia người Israel",
            "birthDate": 1976,
            "status": 1
          }
        ],
        "supplierId": 2,
        "supplierName": "Nhà sách Trẻ",
        "rating": 4.5,
        "reviewCount": 134,
        "soldCount": 89,
        "orderCount": 52,
        "trendingScore": 7.6,
        "trendingRank": 6,
        "isInFlashSale": true,
        "flashSalePrice": 220000,
        "flashSaleStockQuantity": 15,
        "createdAt": 1420070400000,
        "updatedAt": 1751387084686
      },
      {
        "id": 7,
        "bookName": "Kỹ Năng Giao Tiếp Hiệu Quả",
        "description": "Hướng dẫn phát triển kỹ năng giao tiếp trong công việc và cuộc sống hàng ngày.",
        "price": 150000,
        "originalPrice": 150000,
        "discountPercentage": 0,
        "stockQuantity": 78,
        "imageUrl": "https://example.com/images/communication-skills.jpg",
        "bookCode": "BOOK1751357213001",
        "publicationDate": 1751097600000,
        "categoryId": 1,
        "categoryName": "Phát triển bản thân",
        "authors": [
          {
            "id": 8,
            "authorName": "Lê Văn C",
            "biography": "Chuyên gia đào tạo kỹ năng mềm",
            "birthDate": 1978,
            "status": 1
          }
        ],
        "supplierId": 1,
        "supplierName": "Nhà sách Fahasa",
        "rating": 4.1,
        "reviewCount": 92,
        "soldCount": 67,
        "orderCount": 41,
        "trendingScore": 6.2,
        "trendingRank": 7,
        "isInFlashSale": false,
        "flashSalePrice": null,
        "flashSaleStockQuantity": null,
        "createdAt": 1751097600000,
        "updatedAt": 1751357213001
      },
      {
        "id": 8,
        "bookName": "Conan Thám Tử Lừng Danh Tập 100",
        "description": "Tập truyện đặc biệt kỷ niệm 100 tập của series thám tử nổi tiếng nhất Nhật Bản.",
        "price": 35000,
        "originalPrice": 35000,
        "discountPercentage": 0,
        "stockQuantity": 150,
        "imageUrl": "https://example.com/images/conan-100.jpg",
        "bookCode": "BOOK1751357234002",
        "publicationDate": 1751184000000,
        "categoryId": 3,
        "categoryName": "Truyện tranh",
        "authors": [
          {
            "id": 9,
            "authorName": "Aoyama Gosho",
            "biography": "Mangaka nổi tiếng người Nhật Bản",
            "birthDate": 1963,
            "status": 1
          }
        ],
        "supplierId": 3,
        "supplierName": "Kim Đồng",
        "rating": 4.6,
        "reviewCount": 167,
        "soldCount": 278,
        "orderCount": 134,
        "trendingScore": 8.1,
        "trendingRank": 8,
        "isInFlashSale": false,
        "flashSalePrice": null,
        "flashSaleStockQuantity": null,
        "createdAt": 1751184000000,
        "updatedAt": 1751357234002
      },
      {
        "id": 9,
        "bookName": "Nhà Giả Kim",
        "description": "Câu chuyện về hành trình tìm kiếm kho báu và ý nghĩa cuộc sống của chàng chăn cừu Santiago.",
        "price": 79000,
        "originalPrice": 79000,
        "discountPercentage": 0,
        "stockQuantity": 95,
        "imageUrl": "https://example.com/images/alchemist.jpg",
        "bookCode": "BOOK1751357356003",
        "publicationDate": 852076800000,
        "categoryId": 6,
        "categoryName": "Văn học nước ngoài",
        "authors": [
          {
            "id": 10,
            "authorName": "Paulo Coelho",
            "biography": "Nhà văn Brazil nổi tiếng thế giới",
            "birthDate": 1947,
            "status": 1
          }
        ],
        "supplierId": 2,
        "supplierName": "Nhà sách Trẻ",
        "rating": 4.4,
        "reviewCount": 203,
        "soldCount": 156,
        "orderCount": 89,
        "trendingScore": 7.8,
        "trendingRank": 9,
        "isInFlashSale": false,
        "flashSalePrice": null,
        "flashSaleStockQuantity": null,
        "createdAt": 852076800000,
        "updatedAt": 1751357356003
      },
      {
        "id": 10,
        "bookName": "Học Photoshop CC 2023 Từ A-Z",
        "description": "Hướng dẫn học Photoshop từ cơ bản đến nâng cao với các dự án thực tế và kỹ thuật chuyên nghiệp.",
        "price": 189000,
        "originalPrice": 189000,
        "discountPercentage": 0,
        "stockQuantity": 25,
        "imageUrl": "https://example.com/images/photoshop-cc.jpg",
        "bookCode": "BOOK1751358228004",
        "publicationDate": 1751011200000,
        "categoryId": 4,
        "categoryName": "Công nghệ thông tin",
        "authors": [
          {
            "id": 11,
            "authorName": "Phạm Thị D",
            "biography": "Designer với 8 năm kinh nghiệm trong lĩnh vực đồ họa",
            "birthDate": 1988,
            "status": 1
          }
        ],
        "supplierId": 4,
        "supplierName": "Nhà xuất bản Đại học Quốc gia",
        "rating": 4.2,
        "reviewCount": 56,
        "soldCount": 43,
        "orderCount": 28,
        "trendingScore": 5.9,
        "trendingRank": 10,
        "isInFlashSale": false,
        "flashSalePrice": null,
        "flashSaleStockQuantity": null,
        "createdAt": 1751011200000,
        "updatedAt": 1751358228004
      }
    ],
    "totalElements": 85,
    "pageNumber": 0,
    "pageSize": 10,
    "totalPages": 9
  }
}
